{"classType":"listProductItemResponseDto","success":true,"page":1,"total":10543,"totalPage":422,"containerSizeMap":{"entry":[{"key":"20GP","value":1938}]},"items":[{"consignee":"广东兴隆贸易有限公司","consigneeId":1618,"dimension":"1.5 * 1250* C","gateInTruckNumber":"辽C86437","handledFlag":"N－未处理","itemNumber":"B6326065020000","material":"SPCC","orderSubitem":"01","paymentMethod":"订单定金集港","paymentMethodId":"PO_FREIGHT_PREPAID","pod":"黄埔","podId":60035,"productItemTrackStatus":"已在场","productLine":"冷轧2#线","productName":"冷卷","productOrderId":1312,"productOrderNumber":"163000361","receivingWay":"客户自提","trackStatusId":"PI_GATE_IN_TRUCK_CENTER","vesselVoyageInfo":"","weightValue":7.260},{"consignee":"广州海歌汽车部件有限公司","consigneeId":1585,"dimension":"0.6 * 1105* C","gateInTruckNumber":"营港1301","handledFlag":"N－未处理","itemNumber":"B6408115010000","material":"SP121","orderSubitem":"04","paymentMethod":"订单定金集港","paymentMethodId":"PO_FREIGHT_PREPAID","pod":"黄埔","podId":60035,"productItemTrackStatus":"已在场","productLine":"冷轧2#线","productName":"冷卷","productOrderId":1331,"productOrderNumber":"163070072","receivingWay":"客户自提","trackStatusId":"PI_GATE_IN_TRUCK_CENTER","vesselVoyageInfo":"","weightValue":6.120},{"consignee":"鞍钢钢材配送（合肥）有限公司(安徽江淮汽车股份有限公司)","consigneeId":1565,"dimension":"0.8 * 1255* C","gateInTruckNumber":"辽C86437","handledFlag":"N－未处理","itemNumber":"H6321207050000","material":"DC04","orderSubitem":"01","paymentMethod":"先货后款","paymentMethodId":"PO_PAID_MONTH","pod":"合肥","podId":60160,"productItemTrackStatus":"已在场","productLine":"2130冷轧线","productName":"冷卷","productOrderId":1333,"productOrderNumber":"164372166","receivingWay":"港口监管","secondCustomerId":20,"trackStatusId":"PI_GATE_IN_TRUCK_CENTER","vesselVoyageInfo":"","weightValue":6.070},{"consignee":"广州鞍钢钢材加工有限公司(广汽丰通钢业有限公司)","consigneeId":1564,"dimension":"0.65 * 1535* C","gateInTruckNumber":"营1311","handledFlag":"N－未处理","itemNumber":"H6223142010000","material":"SPC270C","orderSubitem":"02","paymentMethod":"先货后款","paymentMethodId":"PO_PAID_MONTH","pod":"南沙","podId":60053,"productItemTrackStatus":"已在场","productLine":"2130冷轧线","productName":"冷卷","productOrderId":1364,"productOrderNumber":"164370085","receivingWay":"港口监管","secondCustomerId":12,"trackStatusId":"PI_GATE_IN_TRUCK_CENTER","vesselVoyageInfo":"","weightValue":6.710},{"consignee":"广州鞍钢钢材加工有限公司(广汽丰通钢业有限公司)","consigneeId":1564,"dimension":"0.65 * 1535* C","gateInTruckNumber":"营1309","handledFlag":"N－未处理","itemNumber":"H6223142040000","material":"SPC270C","orderSubitem":"02","paymentMethod":"先货后款","paymentMethodId":"PO_PAID_MONTH","pod":"南沙","podId":60053,"productItemTrackStatus":"已在场","productLine":"2130冷轧线","productName":"冷卷","productOrderId":1364,"productOrderNumber":"164370085","receivingWay":"港口监管","secondCustomerId":12,"trackStatusId":"PI_GATE_IN_TRUCK_CENTER","vesselVoyageInfo":"","weightValue":6.660},{"consignee":"鞍钢钢材配送（合肥）有限公司(安徽江淮汽车股份有限公司)","consigneeId":1565,"dimension":"1.5 * 1290* C","gateInTruckNumber":"辽C12343","handledFlag":"N－未处理","itemNumber":"H6329041020000","material":"250P1","orderSubitem":"02","paymentMethod":"先货后款","paymentMethodId":"PO_PAID_MONTH","pod":"合肥","podId":60160,"productItemTrackStatus":"已在场","productLine":"2130冷轧线","productName":"冷卷","productOrderId":1366,"productOrderNumber":"164372130","receivingWay":"港口监管","secondCustomerId":20,"trackStatusId":"PI_GATE_IN_TRUCK_CENTER","vesselVoyageInfo":"","weightValue":6.730},{"consignee":"鞍钢钢材配送（合肥）有限公司(安徽江淮汽车股份有限公司)","consigneeId":1565,"dimension":"1.5 * 1290* C","gateInTruckNumber":"辽C12343","handledFlag":"N－未处理","itemNumber":"H6329041010000","material":"250P1","orderSubitem":"02","paymentMethod":"先货后款","paymentMethodId":"PO_PAID_MONTH","pod":"合肥","podId":60160,"productItemTrackStatus":"已在场","productLine":"2130冷轧线","productName":"冷卷","productOrderId":1366,"productOrderNumber":"164372130","receivingWay":"港口监管","secondCustomerId":20,"trackStatusId":"PI_GATE_IN_TRUCK_CENTER","vesselVoyageInfo":"","weightValue":6.410},{"consignee":"中山大洋电机股份有限公司","consigneeId":1570,"dimension":"0.5 * 1037* C","gateInTruckNumber":"辽CB0345","handledFlag":"N－未处理","itemNumber":"D6422117040000","material":"50AW1000","orderSubitem":"04","paymentMethod":"目的港订单定金集港","paymentMethodId":"PO_FREIGHT_COLLECT","pod":"南沙","podId":60053,"productItemTrackStatus":"已在场","productLine":"冷轧硅钢线","productName":"硅钢卷","productOrderId":1374,"productOrderNumber":"163100278","receivingWay":"港口监管","trackStatusId":"PI_GATE_IN_TRUCK_CENTER","vesselVoyageInfo":"","weightValue":7.064},{"consignee":"中山大洋电机股份有限公司","consigneeId":1570,"dimension":"0.5 * 1037* C","gateInTruckNumber":"辽CB0345","handledFlag":"N－未处理","itemNumber":"D6422117030000","material":"50AW1000","orderSubitem":"04","paymentMethod":"目的港订单定金集港","paymentMethodId":"PO_FREIGHT_COLLECT","pod":"南沙","podId":60053,"productItemTrackStatus":"已在场","productLine":"冷轧硅钢线","productName":"硅钢卷","productOrderId":1374,"productOrderNumber":"163100278","receivingWay":"港口监管","trackStatusId":"PI_GATE_IN_TRUCK_CENTER","vesselVoyageInfo":"","weightValue":7.266},{"consignee":"中山大洋电机股份有限公司","consigneeId":1570,"dimension":"0.5 * 1037* C","gateInTruckNumber":"辽CB0345","handledFlag":"N－未处理","itemNumber":"D6422114030000","material":"50AW1000","orderSubitem":"04","paymentMethod":"目的港订单定金集港","paymentMethodId":"PO_FREIGHT_COLLECT","pod":"南沙","podId":60053,"productItemTrackStatus":"已在场","productLine":"冷轧硅钢线","productName":"硅钢卷","productOrderId":1374,"productOrderNumber":"163100278","receivingWay":"港口监管","trackStatusId":"PI_GATE_IN_TRUCK_CENTER","vesselVoyageInfo":"","weightValue":5.986},{"consignee":"中山大洋电机股份有限公司","consigneeId":1570,"dimension":"0.5 * 1037* C","gateInTruckNumber":"辽CB0345","handledFlag":"N－未处理","itemNumber":"D6422060030000","material":"50AW1000","orderSubitem":"04","paymentMethod":"目的港订单定金集港","paymentMethodId":"PO_FREIGHT_COLLECT","pod":"南沙","podId":60053,"productItemTrackStatus":"已在场","productLine":"冷轧硅钢线","productName":"硅钢卷","productOrderId":1374,"productOrderNumber":"163100278","receivingWay":"港口监管","trackStatusId":"PI_GATE_IN_TRUCK_CENTER","vesselVoyageInfo":"","weightValue":6.262},{"consignee":"中山大洋电机股份有限公司","consigneeId":1570,"dimension":"0.5 * 1037* C","gateInTruckNumber":"辽CB0345","handledFlag":"N－未处理","itemNumber":"D6422060020000","material":"50AW1000","orderSubitem":"04","paymentMethod":"目的港订单定金集港","paymentMethodId":"PO_FREIGHT_COLLECT","pod":"南沙","podId":60053,"productItemTrackStatus":"已在场","productLine":"冷轧硅钢线","productName":"硅钢卷","productOrderId":1374,"productOrderNumber":"163100278","receivingWay":"港口监管","trackStatusId":"PI_GATE_IN_TRUCK_CENTER","vesselVoyageInfo":"","weightValue":6.252},{"consignee":"中山大洋电机股份有限公司","consigneeId":1570,"dimension":"0.5 * 1037* C","gateInTruckNumber":"辽CB0345","handledFlag":"N－未处理","itemNumber":"D6422060010000","material":"50AW1000","orderSubitem":"04","paymentMethod":"目的港订单定金集港","paymentMethodId":"PO_FREIGHT_COLLECT","pod":"南沙","podId":60053,"productItemTrackStatus":"已在场","productLine":"冷轧硅钢线","productName":"硅钢卷","productOrderId":1374,"productOrderNumber":"163100278","receivingWay":"港口监管","trackStatusId":"PI_GATE_IN_TRUCK_CENTER","vesselVoyageInfo":"","weightValue":6.252},{"consignee":"中山大洋电机股份有限公司","consigneeId":1570,"dimension":"0.5 * 1037* C","gateInTruckNumber":"辽CB0386","handledFlag":"N－未处理","itemNumber":"D6422056030000","material":"50AW1000","orderSubitem":"04","paymentMethod":"目的港订单定金集港","paymentMethodId":"PO_FREIGHT_COLLECT","pod":"南沙","podId":60053,"productItemTrackStatus":"已在场","productLine":"冷轧硅钢线","productName":"硅钢卷","productOrderId":1374,"productOrderNumber":"163100278","receivingWay":"港口监管","trackStatusId":"PI_GATE_IN_TRUCK_CENTER","vesselVoyageInfo":"","weightValue":6.252},{"consignee":"中山大洋电机股份有限公司","consigneeId":1570,"dimension":"0.5 * 1037* C","gateInTruckNumber":"辽CB0386","handledFlag":"N－未处理","itemNumber":"D6422056020000","material":"50AW1000","orderSubitem":"04","paymentMethod":"目的港订单定金集港","paymentMethodId":"PO_FREIGHT_COLLECT","pod":"南沙","podId":60053,"productItemTrackStatus":"已在场","productLine":"冷轧硅钢线","productName":"硅钢卷","productOrderId":1374,"productOrderNumber":"163100278","receivingWay":"港口监管","trackStatusId":"PI_GATE_IN_TRUCK_CENTER","vesselVoyageInfo":"","weightValue":6.248},{"consignee":"中山大洋电机股份有限公司","consigneeId":1570,"dimension":"0.5 * 1037* C","gateInTruckNumber":"辽CB0386","handledFlag":"N－未处理","itemNumber":"D6422056010000","material":"50AW1000","orderSubitem":"04","paymentMethod":"目的港订单定金集港","paymentMethodId":"PO_FREIGHT_COLLECT","pod":"南沙","podId":60053,"productItemTrackStatus":"已在场","productLine":"冷轧硅钢线","productName":"硅钢卷","productOrderId":1374,"productOrderNumber":"163100278","receivingWay":"港口监管","trackStatusId":"PI_GATE_IN_TRUCK_CENTER","vesselVoyageInfo":"","weightValue":6.234},{"consignee":"东莞市兴隆金属实业有限公司","consigneeId":1566,"dimension":"1.2 * 1250* C","gateInTruckNumber":"辽C12343","handledFlag":"N－未处理","itemNumber":"H6327013000300","material":"St12","orderSubitem":"02","paymentMethod":"订单定金集港","paymentMethodId":"PO_FREIGHT_PREPAID","pod":"南沙","podId":60053,"productItemTrackStatus":"已在场","productLine":"2130冷轧线","productName":"冷卷","productOrderId":1418,"productOrderNumber":"164300206","receivingWay":"客户自提","trackStatusId":"PI_GATE_IN_TRUCK_CENTER","vesselVoyageInfo":"","weightValue":7.570},{"consignee":"东莞市兴隆金属实业有限公司","consigneeId":1566,"dimension":"1.2 * 1250* C","gateInTruckNumber":"辽C12343","handledFlag":"N－未处理","itemNumber":"H6327013000200","material":"St12","orderSubitem":"02","paymentMethod":"订单定金集港","paymentMethodId":"PO_FREIGHT_PREPAID","pod":"南沙","podId":60053,"productItemTrackStatus":"已在场","productLine":"2130冷轧线","productName":"冷卷","productOrderId":1418,"productOrderNumber":"164300206","receivingWay":"客户自提","trackStatusId":"PI_GATE_IN_TRUCK_CENTER","vesselVoyageInfo":"","weightValue":7.760},{"consignee":"东莞市兴隆金属实业有限公司","consigneeId":1566,"dimension":"1.2 * 1250* C","gateInTruckNumber":"营1311","handledFlag":"N－未处理","itemNumber":"H6327040030000","material":"St12","orderSubitem":"02","paymentMethod":"订单定金集港","paymentMethodId":"PO_FREIGHT_PREPAID","pod":"南沙","podId":60053,"productItemTrackStatus":"已在场","productLine":"2130冷轧线","productName":"冷卷","productOrderId":1418,"productOrderNumber":"164300206","receivingWay":"客户自提","trackStatusId":"PI_GATE_IN_TRUCK_CENTER","vesselVoyageInfo":"","weightValue":7.460},{"consignee":"东莞市兴隆金属实业有限公司","consigneeId":1566,"dimension":"1.2 * 1250* C","gateInTruckNumber":"营1311","handledFlag":"N－未处理","itemNumber":"H6327040020000","material":"St12","orderSubitem":"02","paymentMethod":"订单定金集港","paymentMethodId":"PO_FREIGHT_PREPAID","pod":"南沙","podId":60053,"productItemTrackStatus":"已在场","productLine":"2130冷轧线","productName":"冷卷","productOrderId":1418,"productOrderNumber":"164300206","receivingWay":"客户自提","trackStatusId":"PI_GATE_IN_TRUCK_CENTER","vesselVoyageInfo":"","weightValue":7.610},{"consignee":"东莞市兴隆金属实业有限公司","consigneeId":1566,"dimension":"1.2 * 1250* C","gateInTruckNumber":"营1311","handledFlag":"N－未处理","itemNumber":"H6327040010000","material":"St12","orderSubitem":"02","paymentMethod":"订单定金集港","paymentMethodId":"PO_FREIGHT_PREPAID","pod":"南沙","podId":60053,"productItemTrackStatus":"已在场","productLine":"2130冷轧线","productName":"冷卷","productOrderId":1418,"productOrderNumber":"164300206","receivingWay":"客户自提","trackStatusId":"PI_GATE_IN_TRUCK_CENTER","vesselVoyageInfo":"","weightValue":7.610},{"consignee":"东莞市兴隆金属实业有限公司","consigneeId":1566,"dimension":"1.2 * 1250* C","gateInTruckNumber":"营1301","handledFlag":"N－未处理","itemNumber":"H6327021010000","material":"St12","orderSubitem":"02","paymentMethod":"订单定金集港","paymentMethodId":"PO_FREIGHT_PREPAID","pod":"南沙","podId":60053,"productItemTrackStatus":"已在场","productLine":"2130冷轧线","productName":"冷卷","productOrderId":1418,"productOrderNumber":"164300206","receivingWay":"客户自提","trackStatusId":"PI_GATE_IN_TRUCK_CENTER","vesselVoyageInfo":"","weightValue":7.670},{"consignee":"东莞市兴隆金属实业有限公司","consigneeId":1566,"dimension":"1.5 * 1250* C","gateInTruckNumber":"营1311","handledFlag":"N－未处理","itemNumber":"H6327032030000","material":"St12","orderSubitem":"04","paymentMethod":"订单定金集港","paymentMethodId":"PO_FREIGHT_PREPAID","pod":"南沙","podId":60053,"productItemTrackStatus":"已在场","productLine":"2130冷轧线","productName":"冷卷","productOrderId":1419,"productOrderNumber":"164300206","receivingWay":"客户自提","trackStatusId":"PI_GATE_IN_TRUCK_CENTER","vesselVoyageInfo":"","weightValue":7.520},{"consignee":"东莞市兴隆金属实业有限公司","consigneeId":1566,"dimension":"1.5 * 1250* C","gateInTruckNumber":"营1311","handledFlag":"N－未处理","itemNumber":"H6327032020000","material":"St12","orderSubitem":"04","paymentMethod":"订单定金集港","paymentMethodId":"PO_FREIGHT_PREPAID","pod":"南沙","podId":60053,"productItemTrackStatus":"已在场","productLine":"2130冷轧线","productName":"冷卷","productOrderId":1419,"productOrderNumber":"164300206","receivingWay":"客户自提","trackStatusId":"PI_GATE_IN_TRUCK_CENTER","vesselVoyageInfo":"","weightValue":7.540},{"consignee":"东莞市兴隆金属实业有限公司","consigneeId":1566,"dimension":"1.5 * 1250* C","gateInTruckNumber":"营1311","handledFlag":"N－未处理","itemNumber":"H6327032010000","material":"St12","orderSubitem":"04","paymentMethod":"订单定金集港","paymentMethodId":"PO_FREIGHT_PREPAID","pod":"南沙","podId":60053,"productItemTrackStatus":"已在场","productLine":"2130冷轧线","productName":"冷卷","productOrderId":1419,"productOrderNumber":"164300206","receivingWay":"客户自提","trackStatusId":"PI_GATE_IN_TRUCK_CENTER","vesselVoyageInfo":"","weightValue":7.620}],"totalWeight":74777.092}