{"classType":"listProductItemResponseDto","success":true,"page":2,"total":10543,"totalPage":422,"containerSizeMap":{"entry":[{"key":"20GP","value":2035}]},"items":[{"consignee":"广州鞍钢钢材加工有限公司(MDLH)","consigneeId":1564,"dimension":"2 * 1219* C","gateInTruckNumber":"营港1301","handledFlag":"N－未处理","itemNumber":"B64100260C0000","material":"DX53D+Z","orderSubitem":"45","paymentMethod":"先货后款","paymentMethodId":"PO_PAID_MONTH","pod":"南沙","podId":60053,"productItemTrackStatus":"已在场","productLine":"4#、5#镀锌","productName":"镀锌卷","productOrderId":1477,"productOrderNumber":"163600108","receivingWay":"港口监管","secondCustomerId":2,"trackStatusId":"PI_GATE_IN_TRUCK_CENTER","vesselVoyageInfo":"","weightValue":7.400},{"consignee":"广州鞍钢钢材加工有限公司(MDLH)","consigneeId":1564,"dimension":"2 * 1219* C","gateInTruckNumber":"营港1301","handledFlag":"N－未处理","itemNumber":"B64100260B0000","material":"DX53D+Z","orderSubitem":"45","paymentMethod":"先货后款","paymentMethodId":"PO_PAID_MONTH","pod":"南沙","podId":60053,"productItemTrackStatus":"已在场","productLine":"4#、5#镀锌","productName":"镀锌卷","productOrderId":1477,"productOrderNumber":"163600108","receivingWay":"港口监管","secondCustomerId":2,"trackStatusId":"PI_GATE_IN_TRUCK_CENTER","vesselVoyageInfo":"","weightValue":7.050},{"consignee":"广州鞍钢钢材加工有限公司(MDLH)","consigneeId":1564,"dimension":"2 * 1219* C","gateInTruckNumber":"营港1301","handledFlag":"N－未处理","itemNumber":"B64100260A0000","material":"DX53D+Z","orderSubitem":"45","paymentMethod":"先货后款","paymentMethodId":"PO_PAID_MONTH","pod":"南沙","podId":60053,"productItemTrackStatus":"已在场","productLine":"4#、5#镀锌","productName":"镀锌卷","productOrderId":1477,"productOrderNumber":"163600108","receivingWay":"港口监管","secondCustomerId":2,"trackStatusId":"PI_GATE_IN_TRUCK_CENTER","vesselVoyageInfo":"","weightValue":6.910},{"consignee":"鞍钢钢材配送（合肥）有限公司(安徽江淮汽车股份有限公司)","consigneeId":1565,"dimension":"0.8 * 1870* C","gateInTruckNumber":"辽C12343","handledFlag":"N－未处理","itemNumber":"H6318039030000","material":"DC06","orderSubitem":"02","paymentMethod":"先货后款","paymentMethodId":"PO_PAID_MONTH","pod":"合肥","podId":60160,"productItemTrackStatus":"已在场","productLine":"2130冷轧线","productName":"冷轧卷板","productOrderId":1507,"productOrderNumber":"164372118","receivingWay":"港口监管","secondCustomerId":20,"trackStatusId":"PI_GATE_IN_TRUCK_CENTER","vesselVoyageInfo":"","weightValue":7.400},{"consignee":"鞍钢钢材配送（合肥）有限公司(安徽江淮汽车股份有限公司)","consigneeId":1565,"dimension":"0.8 * 1870* C","gateInTruckNumber":"辽C12343","handledFlag":"N－未处理","itemNumber":"H6318026030000","material":"DC06","orderSubitem":"02","paymentMethod":"先货后款","paymentMethodId":"PO_PAID_MONTH","pod":"合肥","podId":60160,"productItemTrackStatus":"已在场","productLine":"2130冷轧线","productName":"冷轧卷板","productOrderId":1507,"productOrderNumber":"164372118","receivingWay":"港口监管","secondCustomerId":20,"trackStatusId":"PI_GATE_IN_TRUCK_CENTER","vesselVoyageInfo":"","weightValue":7.620},{"consignee":"鞍钢钢材配送（合肥）有限公司(安徽江淮汽车股份有限公司)","consigneeId":1565,"dimension":"0.8 * 1870* C","gateInTruckNumber":"辽C85143","handledFlag":"N－未处理","itemNumber":"H6318039010000","material":"DC06","orderSubitem":"02","paymentMethod":"先货后款","paymentMethodId":"PO_PAID_MONTH","pod":"合肥","podId":60160,"productItemTrackStatus":"已在场","productLine":"2130冷轧线","productName":"冷轧卷板","productOrderId":1507,"productOrderNumber":"164372118","receivingWay":"港口监管","secondCustomerId":20,"trackStatusId":"PI_GATE_IN_TRUCK_CENTER","vesselVoyageInfo":"","weightValue":7.920},{"consignee":"鞍钢钢材配送（合肥）有限公司(安徽江淮汽车股份有限公司)","consigneeId":1565,"dimension":"0.8 * 1870* C","gateInTruckNumber":"辽C85143","handledFlag":"N－未处理","itemNumber":"H6318026010000","material":"DC06","orderSubitem":"02","paymentMethod":"先货后款","paymentMethodId":"PO_PAID_MONTH","pod":"合肥","podId":60160,"productItemTrackStatus":"已在场","productLine":"2130冷轧线","productName":"冷轧卷板","productOrderId":1507,"productOrderNumber":"164372118","receivingWay":"港口监管","secondCustomerId":20,"trackStatusId":"PI_GATE_IN_TRUCK_CENTER","vesselVoyageInfo":"","weightValue":7.980},{"consignee":"广州鞍钢钢材加工有限公司(MDLH)","consigneeId":1564,"dimension":"0.5 * 1200* C","gateInTruckNumber":"辽CB1441","handledFlag":"N－未处理","itemNumber":"D6413050010000","material":"50A-MZ8","orderSubitem":"03","paymentMethod":"先货后款","paymentMethodId":"PO_PAID_MONTH","pod":"南沙","podId":60053,"productItemTrackStatus":"已在场","productLine":"冷轧硅钢线","productName":"硅钢卷板","productOrderId":1528,"productOrderNumber":"163100180","receivingWay":"港口监管","secondCustomerId":2,"trackStatusId":"PI_GATE_IN_TRUCK_CENTER","vesselVoyageInfo":"","weightValue":7.706},{"consignee":"鞍钢钢材配送（合肥）有限公司(MDWL)","consigneeId":1565,"dimension":"0.5 * 1200* C","gateInTruckNumber":"辽CB0355","handledFlag":"N－未处理","itemNumber":"D6106070030000","material":"50A-MZ13","orderSubitem":"01","paymentMethod":"先货后款","paymentMethodId":"PO_PAID_MONTH","pod":"淮安","podId":80109,"productItemTrackStatus":"已在场","productLine":"冷轧硅钢线","productName":"硅钢卷板","productOrderId":1554,"productOrderNumber":"163100181","receivingWay":"港口监管","secondCustomerId":30,"trackStatusId":"PI_GATE_IN_TRUCK_CENTER","vesselVoyageInfo":"","weightValue":7.168},{"consignee":"鞍钢钢材配送（合肥）有限公司(MDWL)","consigneeId":1565,"dimension":"0.5 * 1200* C","gateInTruckNumber":"辽CB0355","handledFlag":"N－未处理","itemNumber":"D6106070020000","material":"50A-MZ13","orderSubitem":"01","paymentMethod":"先货后款","paymentMethodId":"PO_PAID_MONTH","pod":"淮安","podId":80109,"productItemTrackStatus":"已在场","productLine":"冷轧硅钢线","productName":"硅钢卷板","productOrderId":1554,"productOrderNumber":"163100181","receivingWay":"港口监管","secondCustomerId":30,"trackStatusId":"PI_GATE_IN_TRUCK_CENTER","vesselVoyageInfo":"","weightValue":7.648},{"consignee":"鞍钢钢材配送（合肥）有限公司(MDWL)","consigneeId":1565,"dimension":"0.5 * 1200* C","gateInTruckNumber":"辽CB0355","handledFlag":"N－未处理","itemNumber":"D6106070010000","material":"50A-MZ13","orderSubitem":"01","paymentMethod":"先货后款","paymentMethodId":"PO_PAID_MONTH","pod":"淮安","podId":80109,"productItemTrackStatus":"已在场","productLine":"冷轧硅钢线","productName":"硅钢卷板","productOrderId":1554,"productOrderNumber":"163100181","receivingWay":"港口监管","secondCustomerId":30,"trackStatusId":"PI_GATE_IN_TRUCK_CENTER","vesselVoyageInfo":"","weightValue":7.616},{"consignee":"鞍钢钢材配送（合肥）有限公司(MDWL)","consigneeId":1565,"dimension":"0.5 * 1200* C","gateInTruckNumber":"辽CB0325","handledFlag":"N－未处理","itemNumber":"D6403069030000","material":"50A-MZ13","orderSubitem":"01","paymentMethod":"先货后款","paymentMethodId":"PO_PAID_MONTH","pod":"淮安","podId":80109,"productItemTrackStatus":"已在场","productLine":"冷轧硅钢线","productName":"硅钢卷板","productOrderId":1554,"productOrderNumber":"163100181","receivingWay":"港口监管","secondCustomerId":30,"trackStatusId":"PI_GATE_IN_TRUCK_CENTER","vesselVoyageInfo":"","weightValue":6.464},{"consignee":"鞍钢钢材配送（合肥）有限公司(MDWL)","consigneeId":1565,"dimension":"0.5 * 1200* C","gateInTruckNumber":"营港准1314","handledFlag":"N－未处理","itemNumber":"D6403080010000","material":"50A-MZ13","orderSubitem":"01","paymentMethod":"先货后款","paymentMethodId":"PO_PAID_MONTH","pod":"淮安","podId":80109,"productItemTrackStatus":"已在场","productLine":"冷轧硅钢线","productName":"硅钢卷板","productOrderId":1554,"productOrderNumber":"163100181","receivingWay":"港口监管","secondCustomerId":30,"trackStatusId":"PI_GATE_IN_TRUCK_CENTER","vesselVoyageInfo":"","weightValue":7.612},{"consignee":"鞍钢钢材配送（合肥）有限公司(MDWL)","consigneeId":1565,"dimension":"0.5 * 1200* C","gateInTruckNumber":"辽CB0353","handledFlag":"N－未处理","itemNumber":"D6403074010000","material":"50A-MZ13","orderSubitem":"01","paymentMethod":"先货后款","paymentMethodId":"PO_PAID_MONTH","pod":"淮安","podId":80109,"productItemTrackStatus":"已在场","productLine":"冷轧硅钢线","productName":"硅钢卷板","productOrderId":1554,"productOrderNumber":"163100181","receivingWay":"港口监管","secondCustomerId":30,"trackStatusId":"PI_GATE_IN_TRUCK_CENTER","vesselVoyageInfo":"","weightValue":7.594},{"consignee":"鞍钢钢材配送（合肥）有限公司(MDWL)","consigneeId":1565,"dimension":"0.5 * 1200* C","gateInTruckNumber":"辽CB0353","handledFlag":"N－未处理","itemNumber":"D6403073020000","material":"50A-MZ13","orderSubitem":"01","paymentMethod":"先货后款","paymentMethodId":"PO_PAID_MONTH","pod":"淮安","podId":80109,"productItemTrackStatus":"已在场","productLine":"冷轧硅钢线","productName":"硅钢卷板","productOrderId":1554,"productOrderNumber":"163100181","receivingWay":"港口监管","secondCustomerId":30,"trackStatusId":"PI_GATE_IN_TRUCK_CENTER","vesselVoyageInfo":"","weightValue":7.594},{"consignee":"鞍钢钢材配送（合肥）有限公司(MDWL)","consigneeId":1565,"dimension":"0.5 * 1200* C","gateInTruckNumber":"辽CB0408","handledFlag":"N－未处理","itemNumber":"D6329074030000","material":"50A-MZ13","orderSubitem":"01","paymentMethod":"先货后款","paymentMethodId":"PO_PAID_MONTH","pod":"淮安","podId":80109,"productItemTrackStatus":"已在场","productLine":"冷轧硅钢线","productName":"硅钢卷板","productOrderId":1554,"productOrderNumber":"163100181","receivingWay":"港口监管","secondCustomerId":30,"trackStatusId":"PI_GATE_IN_TRUCK_CENTER","vesselVoyageInfo":"","weightValue":7.608},{"consignee":"鞍钢钢材配送（合肥）有限公司(MDWL)","consigneeId":1565,"dimension":"0.5 * 1200* C","gateInTruckNumber":"辽CB0408","handledFlag":"N－未处理","itemNumber":"D6329074020000","material":"50A-MZ13","orderSubitem":"01","paymentMethod":"先货后款","paymentMethodId":"PO_PAID_MONTH","pod":"淮安","podId":80109,"productItemTrackStatus":"已在场","productLine":"冷轧硅钢线","productName":"硅钢卷板","productOrderId":1554,"productOrderNumber":"163100181","receivingWay":"港口监管","secondCustomerId":30,"trackStatusId":"PI_GATE_IN_TRUCK_CENTER","vesselVoyageInfo":"","weightValue":7.594},{"consignee":"鞍钢钢材配送（合肥）有限公司(MDWL)","consigneeId":1565,"dimension":"0.5 * 1200* C","gateInTruckNumber":"辽CB0408","handledFlag":"N－未处理","itemNumber":"D6329074010000","material":"50A-MZ13","orderSubitem":"01","paymentMethod":"先货后款","paymentMethodId":"PO_PAID_MONTH","pod":"淮安","podId":80109,"productItemTrackStatus":"已在场","productLine":"冷轧硅钢线","productName":"硅钢卷板","productOrderId":1554,"productOrderNumber":"163100181","receivingWay":"港口监管","secondCustomerId":30,"trackStatusId":"PI_GATE_IN_TRUCK_CENTER","vesselVoyageInfo":"","weightValue":7.618},{"consignee":"鞍钢钢材配送（合肥）有限公司(MDWL)","consigneeId":1565,"dimension":"0.5 * 1200* C","gateInTruckNumber":"辽CB0378","handledFlag":"N－未处理","itemNumber":"D6329111010000","material":"50A-MZ13","orderSubitem":"01","paymentMethod":"先货后款","paymentMethodId":"PO_PAID_MONTH","pod":"淮安","podId":80109,"productItemTrackStatus":"已在场","productLine":"冷轧硅钢线","productName":"硅钢卷板","productOrderId":1554,"productOrderNumber":"163100181","receivingWay":"港口监管","secondCustomerId":30,"trackStatusId":"PI_GATE_IN_TRUCK_CENTER","vesselVoyageInfo":"","weightValue":7.704},{"consignee":"鞍钢钢材配送（合肥）有限公司(MDWL)","consigneeId":1565,"dimension":"0.5 * 1200* C","gateInTruckNumber":"营港准1309","handledFlag":"N－未处理","itemNumber":"D6330016030000","material":"50A-MZ13","orderSubitem":"01","paymentMethod":"先货后款","paymentMethodId":"PO_PAID_MONTH","pod":"淮安","podId":80109,"productItemTrackStatus":"已在场","productLine":"冷轧硅钢线","productName":"硅钢卷板","productOrderId":1554,"productOrderNumber":"163100181","receivingWay":"港口监管","secondCustomerId":30,"trackStatusId":"PI_GATE_IN_TRUCK_CENTER","vesselVoyageInfo":"","weightValue":7.438},{"consignee":"鞍钢钢材配送（合肥）有限公司(MDWL)","consigneeId":1565,"dimension":"0.5 * 1200* C","gateInTruckNumber":"辽C12886","handledFlag":"N－未处理","itemNumber":"D6329105030000","material":"50A-MZ13","orderSubitem":"01","paymentMethod":"先货后款","paymentMethodId":"PO_PAID_MONTH","pod":"淮安","podId":80109,"productItemTrackStatus":"已在场","productLine":"冷轧硅钢线","productName":"硅钢卷板","productOrderId":1554,"productOrderNumber":"163100181","receivingWay":"港口监管","secondCustomerId":30,"trackStatusId":"PI_GATE_IN_TRUCK_CENTER","vesselVoyageInfo":"","weightValue":7.692},{"consignee":"鞍钢钢材配送（合肥）有限公司(MDWL)","consigneeId":1565,"dimension":"0.5 * 1200* C","gateInTruckNumber":"营港准1309","handledFlag":"N－未处理","itemNumber":"D6329104010000","material":"50A-MZ13","orderSubitem":"01","paymentMethod":"先货后款","paymentMethodId":"PO_PAID_MONTH","pod":"淮安","podId":80109,"productItemTrackStatus":"已在场","productLine":"冷轧硅钢线","productName":"硅钢卷板","productOrderId":1554,"productOrderNumber":"163100181","receivingWay":"港口监管","secondCustomerId":30,"trackStatusId":"PI_GATE_IN_TRUCK_CENTER","vesselVoyageInfo":"","weightValue":7.762},{"consignee":"鞍钢钢材配送（合肥）有限公司(MDWL)","consigneeId":1565,"dimension":"0.5 * 1200* C","gateInTruckNumber":"营港准1309","handledFlag":"N－未处理","itemNumber":"D6329102010000","material":"50A-MZ13","orderSubitem":"01","paymentMethod":"先货后款","paymentMethodId":"PO_PAID_MONTH","pod":"淮安","podId":80109,"productItemTrackStatus":"已在场","productLine":"冷轧硅钢线","productName":"硅钢卷板","productOrderId":1554,"productOrderNumber":"163100181","receivingWay":"港口监管","secondCustomerId":30,"trackStatusId":"PI_GATE_IN_TRUCK_CENTER","vesselVoyageInfo":"","weightValue":7.704},{"consignee":"鞍钢钢材配送（合肥）有限公司(MDWL)","consigneeId":1565,"dimension":"0.5 * 1200* C","gateInTruckNumber":"辽C12886","handledFlag":"N－未处理","itemNumber":"D6330102020000","material":"50A-MZ13","orderSubitem":"01","paymentMethod":"先货后款","paymentMethodId":"PO_PAID_MONTH","pod":"淮安","podId":80109,"productItemTrackStatus":"已在场","productLine":"冷轧硅钢线","productName":"硅钢卷板","productOrderId":1554,"productOrderNumber":"163100181","receivingWay":"港口监管","secondCustomerId":30,"trackStatusId":"PI_GATE_IN_TRUCK_CENTER","vesselVoyageInfo":"","weightValue":7.652},{"consignee":"鞍钢钢材配送（合肥）有限公司(MDWL)","consigneeId":1565,"dimension":"0.5 * 1200* C","gateInTruckNumber":"辽C12886","handledFlag":"N－未处理","itemNumber":"D6330102010000","material":"50A-MZ13","orderSubitem":"01","paymentMethod":"先货后款","paymentMethodId":"PO_PAID_MONTH","pod":"淮安","podId":80109,"productItemTrackStatus":"已在场","productLine":"冷轧硅钢线","productName":"硅钢卷板","productOrderId":1554,"productOrderNumber":"163100181","receivingWay":"港口监管","secondCustomerId":30,"trackStatusId":"PI_GATE_IN_TRUCK_CENTER","vesselVoyageInfo":"","weightValue":7.648}],"totalWeight":74777.092}